[
    "Subject",
    "Richiedente",
    "Cliente",
    "Settori",
    "Stato",
    "Utenti",
    "Allegati tecnici",
    "Allegati commerciali",
    "Associazione commesse",
    "EsitoTransazione",
    "ModalitaTransazione",
    "DurataAttivita",
    "ScadenzaDiProcedura",
    "ScadenzaDiStep",
    "Servizio",
	"Genera sottorichiesta"
]