[
    {
        "RuoloName":"SysAdmin",
        "Permessi": [
            "Becore.ABP",
            "Utenti.Visualizza",
            "Utenti.Aggiungi",
            "Utenti.Modifica",
            "Utenti.Elimina",
            "GestioneSettori",
            "GestioneFiltriDecisionali",
            "TabellaTipiRichiesta",
            "Richieste.Visualizza",
            "Richieste.Modifica",
            "GestioneFaqs",
            "Clienti.Visualizza",
            "Clienti.Aggiungi",
            "Clienti.Modifica",
            "Clienti.Elimina",
            "GestioneProcedure",
            "ProspectAdmin",
            "PianoRilascioProgetti",
            "BMailing",
            "GestioneCommesse",
            "Consuntivazione",
            "CategorieClienti",
            "GestioneMagazine",
            "GestioneProdotti",
            "Collezioni",
            "CaseHistory"
        ]

    },
    {
        "RuoloName":"Utente",
        "Permessi": [
            "Utenti.Visualizza",
            "Becore.ABP",
            "Richieste.Visualizza",
            "Richieste.Modifica",
            "TabellaTipiRichiesta",
            "GestioneFaqs",
            "Clienti.Visualizza",
            "Clienti.Aggiungi",
            "Clienti.Modifica",
            "Clienti.Elimina",
            "VisualizzaProcedure",
            "ProspectAdmin",
            "CategorieClienti",
            "BMailing",
            "GestioneMagazine",
            "CategorieClienti",
            "GestioneProdotti",
            "Collezioni",
            "CaseHistory"
        ]
    }
]

